<svg width="12" height="13" viewBox="0 0 12 13" fill="none" xmlns="http://www.w3.org/2000/svg">
<path d="M2.8002 12.3998C4.1502 12.3998 5.0002 11.3998 5.0002 10.0998C5.0002 8.79981 4.1502 7.94981 2.9502 7.94981C2.6002 7.94981 2.2502 8.04981 1.9002 8.29981C1.7502 7.84981 1.7002 7.29981 1.7002 6.59981C1.7002 4.09981 2.7502 1.99981 4.60019 0.699805L4.3002 0.0498047C1.7502 1.44981 0.200195 4.74981 0.200195 8.44981C0.200195 10.7998 1.1502 12.3998 2.8002 12.3998ZM9.1002 12.3998C10.4502 12.3998 11.3002 11.3998 11.3002 10.0998C11.3002 8.79981 10.4502 7.94981 9.2502 7.94981C8.9002 7.94981 8.5502 8.04981 8.2002 8.29981C8.0502 7.84981 8.0002 7.29981 8.0002 6.59981C8.0002 4.09981 9.0502 1.99981 10.9002 0.699805L10.6002 0.0498047C8.05019 1.44981 6.5002 4.74981 6.5002 8.44981C6.5002 10.7998 7.4502 12.3998 9.1002 12.3998Z" fill="white"/>
</svg>
